\relax 
\@writefile{toc}{\contentsline {section}{\numberline {1}課題7}{2}}
\@writefile{toc}{\contentsline {subsection}{\numberline {1.1}ペア出し機能のスクリーンショット}{2}}
\@writefile{toc}{\contentsline {subsection}{\numberline {1.2}ペア出し機能の考察}{2}}
\@writefile{toc}{\contentsline {subsubsection}{\numberline {1.2.1}make\_info\_table関数}{2}}
\@writefile{toc}{\contentsline {subsubsection}{\numberline {1.2.2}search\_low\_pair関数}{2}}
\@writefile{toc}{\contentsline {subsubsection}{\numberline {1.2.3}select\_cards\_free関数}{2}}
\@writefile{toc}{\contentsline {section}{\numberline {2}課題8}{3}}
\@writefile{toc}{\contentsline {subsection}{\numberline {2.1}階段出し機能のスクリーンショット}{3}}
\@writefile{toc}{\contentsline {subsection}{\numberline {2.2}階段出し機能の考察}{3}}
\@writefile{toc}{\contentsline {subsubsection}{\numberline {2.2.1}make\_info\_table関数}{3}}
\@writefile{toc}{\contentsline {subsubsection}{\numberline {2.2.2}search\_low\_sequence関数}{3}}
\@writefile{toc}{\contentsline {subsubsection}{\numberline {2.2.3}select\_cards\_free関数}{4}}
