\relax 
\@writefile{toc}{\contentsline {section}{\numberline {1}課題5}{2}}
\@writefile{lof}{\contentsline {figure}{\numberline {1}{\ignorespaces サーバ実行画面}}{2}}
\@writefile{lof}{\contentsline {figure}{\numberline {2}{\ignorespaces グラフ画面}}{2}}
\@writefile{toc}{\contentsline {section}{\numberline {2}課題6}{3}}
\@writefile{toc}{\contentsline {subsection}{\numberline {2.1}common.c}{3}}
\@writefile{toc}{\contentsline {subsubsection}{\numberline {2.1.1}copy\_table関数}{3}}
\@writefile{toc}{\contentsline {subsubsection}{\numberline {2.1.2}clear\_table関数}{3}}
\@writefile{toc}{\contentsline {subsubsection}{\numberline {2.1.3}copy\_cards関数}{3}}
\@writefile{toc}{\contentsline {subsubsection}{\numberline {2.1.4}clear\_cards関数}{3}}
\@writefile{toc}{\contentsline {subsubsection}{\numberline {2.1.5}diff\_cards関数}{4}}
\@writefile{toc}{\contentsline {subsubsection}{\numberline {2.1.6}or\_cards関数}{4}}
\@writefile{toc}{\contentsline {subsubsection}{\numberline {2.1.7}and\_cards関数}{4}}
\@writefile{toc}{\contentsline {subsubsection}{\numberline {2.1.8}not\_cards関数}{4}}
\@writefile{toc}{\contentsline {subsubsection}{\numberline {2.1.9}get\_field\_state\_from\_field\_cards関数}{5}}
\@writefile{toc}{\contentsline {subsubsection}{\numberline {2.1.10}get\_field\_state\_from\_own\_cards関数}{5}}
\@writefile{toc}{\contentsline {subsubsection}{\numberline {2.1.11}remove\_low\_card関数}{6}}
\@writefile{toc}{\contentsline {subsubsection}{\numberline {2.1.12}remove\_suit関数}{6}}
\@writefile{toc}{\contentsline {subsubsection}{\numberline {2.1.13}count\_cards関数}{6}}
\@writefile{toc}{\contentsline {subsection}{\numberline {2.2}select\_cards.c}{7}}
\@writefile{toc}{\contentsline {subsubsection}{\numberline {2.2.1}select\_change\_cards関数}{7}}
\@writefile{toc}{\contentsline {subsubsection}{\numberline {2.2.2}select\_submit\_cards関数}{7}}
\@writefile{toc}{\contentsline {subsubsection}{\numberline {2.2.3}select\_cards\_free関数}{8}}
\@writefile{toc}{\contentsline {subsubsection}{\numberline {2.2.4}select\_cards\_restrict関数}{8}}
