\relax 
\@writefile{toc}{\contentsline {section}{\numberline {1}課題1}{2}}
\@writefile{toc}{\contentsline {subsection}{\numberline {1.1}データの個数が既知の場合}{2}}
\@writefile{toc}{\contentsline {subsubsection}{\numberline {1.1.1}ソースコード}{2}}
\@writefile{lol}{\contentsline {lstlisting}{\numberline {1}ex01-1.c}{2}}
\@writefile{toc}{\contentsline {subsubsection}{\numberline {1.1.2}実行結果}{3}}
\@writefile{toc}{\contentsline {subsection}{\numberline {1.2}データの個数が未知の場合}{3}}
\@writefile{toc}{\contentsline {subsubsection}{\numberline {1.2.1}ソースコード}{3}}
\@writefile{lol}{\contentsline {lstlisting}{\numberline {2}ex01-2.c}{3}}
\@writefile{toc}{\contentsline {subsubsection}{\numberline {1.2.2}実行結果}{5}}
