\relax 
\@writefile{toc}{\contentsline {section}{\numberline {1}課題2}{2}}
\@writefile{toc}{\contentsline {subsection}{\numberline {1.1}ソースコード}{2}}
\@writefile{lol}{\contentsline {lstlisting}{\numberline {1}ex02.c}{2}}
\@writefile{toc}{\contentsline {subsection}{\numberline {1.2}実行結果}{4}}
