\relax 
\@writefile{toc}{\contentsline {section}{\numberline {1}課題3}{2}}
\@writefile{toc}{\contentsline {subsection}{\numberline {1.1}ソースコード}{2}}
\@writefile{lol}{\contentsline {lstlisting}{\numberline {1}stack.c}{2}}
\@writefile{toc}{\contentsline {subsection}{\numberline {1.2}実行結果}{4}}
\@writefile{toc}{\contentsline {section}{\numberline {2}課題4}{5}}
\@writefile{toc}{\contentsline {subsection}{\numberline {2.1}ソースコード}{5}}
\@writefile{lol}{\contentsline {lstlisting}{\numberline {2}tree.c}{5}}
\@writefile{toc}{\contentsline {subsection}{\numberline {2.2}実行結果}{7}}
